{
  "name": "component-app",
  "version": "0.1.0",
  "private": true,
  "babelMacros": {
    "twin": {
      "preset": "styled-components"
    }
  },
  "dependencies": {
    "@craco/craco": "^6.1.1",
    "@headlessui/react": "1.1.0",
    "@primer/octicons-react": "10.0.0",
    "@testing-library/jest-dom": "^5.11.4",
    "@testing-library/react": "^11.1.0",
    "@testing-library/user-event": "^12.1.10",
    "polished": "^4.1.2",
    "prop-types": "^15.7.2",
    "react": "^17.0.2",
    "react-dom": "^17.0.2",
    "react-markdown": "4.3.1",
    "react-medium-image-zoom": "3.1.3",
    "react-scripts": "4.0.3",
    "styled-components": "^5.3.0",
    "typescript": "^4.2.4",
    "web-vitals": "^1.0.1"
  },
  "scripts": {
    "start": "craco start",
    "build": "craco build",
    "test": "craco test",
    "eject": "react-scripts eject",
    "storybook": "start-storybook -p 6006 -s public",
    "build-storybook": "build-storybook -s public"
  },
  "eslintConfig": {
    "extends": [
      "react-app",
      "react-app/jest"
    ],
    "overrides": [
      {
        "files": [
          "**/*.stories.*"
        ],
        "rules": {
          "import/no-anonymous-default-export": "off"
        }
      }
    ]
  },
  "browserslist": {
    "production": [
      ">0.2%",
      "not dead",
      "not op_mini all"
    ],
    "development": [
      "last 1 chrome version",
      "last 1 firefox version",
      "last 1 safari version"
    ]
  },
  "devDependencies": {
    "@babel/core": "^7.14.0",
    "@babel/preset-env": "^7.14.1",
    "@babel/preset-react": "^7.13.13",
    "@babel/preset-typescript": "^7.13.0",
    "@storybook/addon-actions": "^6.2.8",
    "@storybook/addon-essentials": "^6.2.8",
    "@storybook/addon-links": "^6.2.8",
    "@storybook/node-logger": "^6.2.8",
    "@storybook/preset-create-react-app": "^3.1.7",
    "@storybook/react": "^6.2.8",
    "@types/jest": "^26.0.23",
    "@types/node": "^15.0.2",
    "@types/react": "^17.0.5",
    "@types/react-dom": "^17.0.3",
    "@types/styled-components": "^5.1.9",
    "autoprefixer": "^9.8.6",
    "babel-plugin-styled-components": "^1.12.0",
    "postcss": "^7.0.35",
    "tailwindcss": "npm:@tailwindcss/postcss7-compat@^2.1.2",
    "twin.macro": "^2.4.1"
  }
}
