[
    {
        "types": [
            {
                "label": "Academy",
                "value": "academy"
            }
        ],
        "timer": {
            "label": "30 minutes",
            "value": "30"
        },
        "basePorts": [],
        "resourcesCPUMEM": {
            "label": "256 / 1024 : (vCPU; units) / (Memory; MiB)",
            "value": "256:1024"
        },
        "categories": [
            {
                "label": "Artifact Management",
                "value": "artifactmanagement"
            }
        ],
        "containerDefinition": [],
        "createdDateTime": 1611851000,
        "uuid": "24b47b11-7eff-4d9a-96c0-05ffc07571be",
        "description": "Ach2",
        "labName": "Ach2",
        "userUuid": "c9a5479a-47e8-40b0-8b66-647111dcb9a8",
        "achievements": false,
        "achievementsDebug": false,
        "achievementsImage": "form",
        "integratedWebsite": false,
        "integratedWebsiteURL": "",
        "ide": true,
        "active": true,
        "shell": false,
        "baseGitUrl": ""
    },
    {
        "types": [
            {
                "label": "Academy",
                "value": "academy"
            }
        ],
        "timer": {
            "label": "30 minutes",
            "value": "30"
        },
        "basePorts": [],
        "resourcesCPUMEM": {
            "label": "256 / 1024 : (vCPU; units) / (Memory; MiB)",
            "value": "256:1024"
        },
        "categories": [
            {
                "label": "Artifact Management",
                "value": "artifactmanagement"
            }
        ],
        "containerDefinition": [],
        "createdDateTime": 1611851000,
        "uuid": "7bdf7acb-2d69-41e0-ae4c-84ae85bfc6ca",
        "description": "ach5",
        "labName": "ach5",
        "userUuid": "c9a5479a-47e8-40b0-8b66-647111dcb9a8",
        "achievements": false,
        "achievementsDebug": false,
        "achievementsImage": "ach5",
        "integratedWebsite": false,
        "integratedWebsiteURL": "",
        "ide": true,
        "active": true,
        "shell": false,
        "baseGitUrl": ""
    },
    {
        "types": [
            {
                "label": "Academy",
                "value": "academy"
            }
        ],
        "timer": {
            "label": "30 minutes",
            "value": "30"
        },
        "basePorts": [],
        "resourcesCPUMEM": {
            "label": "256 / 1024 : (vCPU; units) / (Memory; MiB)",
            "value": "256:1024"
        },
        "categories": [
            {
                "label": "Artifact Management",
                "value": "artifactmanagement"
            }
        ],
        "containerDefinition": [],
        "createdDateTime": 1611851000,
        "uuid": "bf05d1b1-df6e-4cec-a789-249fb8b0e88f",
        "description": "ach7",
        "labName": "ach7",
        "userUuid": "c9a5479a-47e8-40b0-8b66-647111dcb9a8",
        "achievements": false,
        "achievementsDebug": false,
        "achievementsImage": "busybox",
        "integratedWebsite": false,
        "integratedWebsiteURL": "",
        "ide": true,
        "active": true,
        "shell": false,
        "baseGitUrl": ""
    },
    {
        "types": [
            {
                "label": "Academy",
                "value": "academy"
            }
        ],
        "timer": {
            "label": "30 minutes",
            "value": "30"
        },
        "basePorts": [],
        "resourcesCPUMEM": {
            "label": "256 / 512 : (vCPU; units) / (Memory; MiB)",
            "value": "256:512"
        },
        "categories": [
            {
                "label": "Artifact Management",
                "value": "artifactmanagement"
            }
        ],
        "containerDefinition": [
            {
                "path": "",
                "image": "630895193694.dkr.ecr.eu-west-1.amazonaws.com/dev-repository:sl-ui-base-apline",
                "ports": [
                    {
                        "port": "9998",
                        "visible": true
                    },
                    {
                        "port": "9999",
                        "visible": true
                    },
                    {
                        "port": "8080",
                        "visible": true
                    }
                ],
                "envVars": "LAB_URL=git@bitbucket.org:ecs-group/itdo-docker.git",
                "shortName": "Alpine",
                "mountPoints": []
            }
        ],
        "createdDateTime": 1611851000,
        "uuid": "b53dc862-4ca2-4a34-950d-b92c712d186c",
        "description": "Testing Alpine Based image",
        "labName": "Alpine Test",
        "userUuid": "c9a5479a-47e8-40b0-8b66-647111dcb9a8",
        "achievements": false,
        "achievementsDebug": false,
        "achievementsImage": "busybox",
        "integratedWebsite": false,
        "integratedWebsiteURL": "",
        "ide": false,
        "active": false,
        "shell": false,
        "baseGitUrl": ""
    },
    {
        "types": [
            {
                "label": "Academy",
                "value": "academy"
            }
        ],
        "timer": {
            "label": "180 minutes",
            "value": "180"
        },
        "basePorts": [],
        "resourcesCPUMEM": {
            "label": "256 / 512 : (vCPU; units) / (Memory; MiB)",
            "value": "256:512"
        },
        "categories": [
            {
                "label": "Cloud",
                "value": "cloud"
            }
        ],
        "containerDefinition": [],
        "createdDateTime": 1618196000,
        "uuid": "b7ea47c3-e4c3-4cd1-826b-9082bb4396ba",
        "description": "AWS Console Integration Test",
        "labName": "AWS Console Integration Test",
        "userUuid": "c9a5479a-47e8-40b0-8b66-647111dcb9a8",
        "achievements": false,
        "achievementsDebug": false,
        "achievementsImage": "",
        "integratedWebsite": true,
        "integratedWebsiteURL": "https://console.aws.amazon.com",
        "ide": true,
        "active": false,
        "shell": false,
        "baseGitUrl": ""
    },
    {
        "types": [
            {
                "label": "sfds",
                "value": "billy"
            }
        ],
        "timer": {
            "label": "60 minutes",
            "value": "60"
        },
        "basePorts": [],
        "resourcesCPUMEM": {
            "label": "256 / 1024 : (vCPU; units) / (Memory; MiB)",
            "value": "256:1024"
        },
        "categories": [
            {
                "label": "Cloud",
                "value": "cloud"
            }
        ],
        "containerDefinition": [],
        "createdDateTime": 1616417000,
        "uuid": "21e33886-64a6-42dc-9b28-cff7f574bf98",
        "description": "tt",
        "labName": "BillyTest1",
        "userUuid": "241d11e9-0ac9-499f-be73-7557147bcb43",
        "achievements": false,
        "achievementsDebug": false,
        "achievementsImage": "",
        "integratedWebsite": false,
        "integratedWebsiteURL": "",
        "ide": false,
        "active": false,
        "shell": false,
        "baseGitUrl": ""
    },
    {
        "types": [
            {
                "label": "Academy",
                "value": "academy"
            }
        ],
        "timer": {
            "label": "30 minutes",
            "value": "30"
        },
        "basePorts": [],
        "resourcesCPUMEM": {
            "label": "256 / 512 : (vCPU; units) / (Memory; MiB)",
            "value": "256:512"
        },
        "categories": [
            {
                "label": "Artifact Management",
                "value": "artifactmanagement"
            }
        ],
        "containerDefinition": [
            {
                "path": "",
                "image": "test_auto",
                "envVars": "",
                "shortName": "test",
                "mountPoints": []
            }
        ],
        "createdDateTime": 1611851000,
        "uuid": "6296cadd-df30-4194-856b-1ab29ec78bd3",
        "description": "This is a test ",
        "labName": "Broken container test ",
        "userUuid": "17ecaeec-74e8-4a4c-aada-5825e3fcf9cc",
        "achievements": false,
        "achievementsDebug": false,
        "achievementsImage": "busybox",
        "integratedWebsite": false,
        "integratedWebsiteURL": "",
        "ide": true,
        "active": true,
        "shell": true,
        "baseGitUrl": ""
    },
    {
        "types": [
            {
                "label": "Academy",
                "value": "academy"
            }
        ],
        "timer": {
            "label": "30 minutes",
            "value": "30"
        },
        "basePorts": [],
        "resourcesCPUMEM": {
            "label": "256 / 512 : (vCPU; units) / (Memory; MiB)",
            "value": "256:512"
        },
        "categories": [
            {
                "label": "Artifact Management",
                "value": "artifactmanagement"
            }
        ],
        "containerDefinition": [],
        "createdDateTime": 1611851000,
        "uuid": "7899778b-a0d9-4e2d-b4ea-794d5112113e",
        "description": "ccc",
        "labName": "cccc",
        "userUuid": "4d80c839-eace-49b1-917e-fe9e54e2e861",
        "achievements": false,
        "achievementsDebug": false,
        "achievementsImage": "busybox",
        "integratedWebsite": false,
        "integratedWebsiteURL": "",
        "ide": false,
        "active": false,
        "shell": false,
        "baseGitUrl": ""
    },
    {
        "types": [
            {
                "label": "Academy",
                "value": "academy"
            }
        ],
        "timer": {
            "label": "60 minutes",
            "value": "60"
        },
        "basePorts": [
            {
                "port": "8080",
                "visible": true
            }
        ],
        "resourcesCPUMEM": {
            "label": "512 / 1024 : (vCPU; units) / (Memory; MiB)",
            "value": "512:1024"
        },
        "categories": [
            {
                "label": "Containerisation",
                "value": "containerisation"
            }
        ],
        "containerDefinition": [],
        "createdDateTime": 1611851000,
        "uuid": "bb9af02b-e905-49b1-b647-cecd23e83cb9",
        "description": "Containers",
        "labName": "Container Fundamentals ",
        "userUuid": "e29025de-5725-4c86-9ad9-f4d0ac8e96ac",
        "achievements": false,
        "achievementsDebug": false,
        "achievementsImage": "busybox",
        "integratedWebsite": false,
        "integratedWebsiteURL": "",
        "ide": true,
        "active": true,
        "shell": true,
        "baseGitUrl": ""
    },
    {
        "types": [
            {
                "label": "Test Group",
                "value": "cy-group"
            }
        ],
        "timer": {
            "label": "30 minutes",
            "value": "30"
        },
        "basePorts": [],
        "resourcesCPUMEM": {
            "label": "256 / 512 : (vCPU; units) / (Memory; MiB)",
            "value": "256:512"
        },
        "categories": [
            {
                "label": "Infrastructure-as-Code",
                "value": "infrastructureascode"
            },
            {
                "label": "Security",
                "value": "security"
            },
            {
                "label": "Config Management",
                "value": "configmanagement"
            },
            {
                "label": "Testing",
                "value": "testing"
            }
        ],
        "containerDefinition": [
            {
                "path": "",
                "image": "hashicorp/vault-enterprise:1.7.0_ent",
                "ports": [
                    {
                        "port": "8200",
                        "visible": true
                    }
                ],
                "envVars": "VAULT_DEV_ROOT_TOKEN_ID=vault-token,SKIP_SETCAP=true",
                "shortName": "vault",
                "mountPoints": []
            }
        ],
        "createdDateTime": 1614272000,
        "uuid": "bae91605-78b1-44d7-ba52-b0aabcd0921d",
        "description": "Test lab to create Vault Enterprise resources with Terraform",
        "labName": "Creating Vault Enterprise namespaces with Terraform",
        "userUuid": "d45464d7-50f4-4895-a7be-bdb4f95194e3",
        "achievements": false,
        "achievementsDebug": false,
        "achievementsImage": "",
        "integratedWebsite": false,
        "integratedWebsiteURL": "",
        "ide": true,
        "active": true,
        "shell": false,
        "baseGitUrl": "git@bitbucket.org:ecs-group/vault-admin.git"
    }
]